\begin{thebibliography}{Boo54}

\bibitem[Boo54]{boole:1854}
George Boole.
\newblock {\em An Investigation of the Laws of Thought: On which are founded
  the Mathematical Theories of Logic and Probability}.
\newblock Macmillan, London, 1854.

\bibitem[MB88]{muggleton:1988}
Stephen Muggleton and W.~Buntine.
\newblock Machine invention of first-order predicates by inverting resolution.
\newblock In {\em Proceedings of the 5th International Conference on Machine
  Learning}, pages 339--352. Kaufmann, 1988.

\bibitem[Tur50]{turing:1950}
Alan~Mathison Turing.
\newblock Computing machinery and intelligence.
\newblock {\em Mind}, 59(236):433--460, 1950.

\end{thebibliography}
